{
    "toolname":{
        "0":"reference",
        "1":"reference",
        "2":"reference",
        "3":"reference",
        "4":"reference",
        "5":"reference",
        "6":"reference",
        "7":"reference",
        "8":"reference",
        "9":"reference",
        "10":"reference",
        "11":"reference",
        "12":"reference",
        "13":"reference",
        "14":"reference",
        "15":"reference",
        "16":"reference",
        "17":"reference",
        "18":"reference",
        "19":"reference",
        "20":"reference",
        "21":"reference",
        "22":"reference",
        "23":"reference",
        "24":"orthofinder_254_lemortho",
        "25":"orthofinder_254_lemortho",
        "26":"orthofinder_254_lemortho",
        "27":"orthofinder_254_lemortho",
        "28":"orthofinder_254_lemortho",
        "29":"orthofinder_254_lemortho",
        "30":"orthofinder_254_lemortho",
        "31":"orthofinder_254_lemortho",
        "32":"orthofinder_254_lemortho",
        "33":"orthofinder_254_lemortho",
        "34":"orthofinder_254_lemortho",
        "35":"orthofinder_254_lemortho",
        "36":"orthofinder_254_lemortho",
        "37":"orthofinder_254_lemortho",
        "38":"orthofinder_254_lemortho",
        "39":"orthofinder_254_lemortho",
        "40":"orthofinder_254_lemortho",
        "41":"orthofinder_254_lemortho",
        "42":"orthofinder_254_lemortho",
        "43":"orthofinder_254_lemortho",
        "44":"orthofinder_254_lemortho",
        "45":"orthofinder_254_lemortho",
        "46":"orthofinder_254_lemortho",
        "47":"orthofinder_254_lemortho"
    },
    "dataset":{
        "0":"refogs_ci",
        "1":"refogs_ci",
        "2":"refogs_ci",
        "3":"refogs_ci",
        "4":"refogs_ci",
        "5":"refogs_ci",
        "6":"refogs_ci",
        "7":"refogs_ci",
        "8":"refogs_ci",
        "9":"refogs_ci",
        "10":"refogs_ci",
        "11":"refogs_ci",
        "12":"refogs_ci",
        "13":"refogs_ci",
        "14":"refogs_ci",
        "15":"refogs_ci",
        "16":"refogs_ci",
        "17":"refogs_ci",
        "18":"refogs_ci",
        "19":"refogs_ci",
        "20":"refogs_ci",
        "21":"refogs_ci",
        "22":"refogs_ci",
        "23":"refogs_ci",
        "24":"refogs_ci",
        "25":"refogs_ci",
        "26":"refogs_ci",
        "27":"refogs_ci",
        "28":"refogs_ci",
        "29":"refogs_ci",
        "30":"refogs_ci",
        "31":"refogs_ci",
        "32":"refogs_ci",
        "33":"refogs_ci",
        "34":"refogs_ci",
        "35":"refogs_ci",
        "36":"refogs_ci",
        "37":"refogs_ci",
        "38":"refogs_ci",
        "39":"refogs_ci",
        "40":"refogs_ci",
        "41":"refogs_ci",
        "42":"refogs_ci",
        "43":"refogs_ci",
        "44":"refogs_ci",
        "45":"refogs_ci",
        "46":"refogs_ci",
        "47":"refogs_ci"
    },
    "percent_included":{
        "0":0,
        "1":5,
        "2":10,
        "3":15,
        "4":20,
        "5":25,
        "6":30,
        "7":35,
        "8":40,
        "9":45,
        "10":50,
        "11":55,
        "12":60,
        "13":65,
        "14":70,
        "15":75,
        "16":80,
        "17":85,
        "18":90,
        "19":92,
        "20":94,
        "21":96,
        "22":98,
        "23":99,
        "24":0,
        "25":5,
        "26":10,
        "27":15,
        "28":20,
        "29":25,
        "30":30,
        "31":35,
        "32":40,
        "33":45,
        "34":50,
        "35":55,
        "36":60,
        "37":65,
        "38":70,
        "39":75,
        "40":80,
        "41":85,
        "42":90,
        "43":92,
        "44":94,
        "45":96,
        "46":98,
        "47":99
    },
    "value":{
        "0":70,
        "1":70,
        "2":70,
        "3":70,
        "4":70,
        "5":70,
        "6":70,
        "7":70,
        "8":70,
        "9":70,
        "10":70,
        "11":70,
        "12":70,
        "13":70,
        "14":70,
        "15":70,
        "16":70,
        "17":70,
        "18":70,
        "19":70,
        "20":70,
        "21":70,
        "22":70,
        "23":70,
        "24":41,
        "25":39,
        "26":23,
        "27":12,
        "28":4,
        "29":1,
        "30":0,
        "31":0,
        "32":0,
        "33":0,
        "34":0,
        "35":0,
        "36":0,
        "37":0,
        "38":0,
        "39":0,
        "40":0,
        "41":0,
        "42":0,
        "43":0,
        "44":0,
        "45":0,
        "46":0,
        "47":0
    }
}