{
	"refogs_pure": {
		"refogs_pure": [
            "f1",
            "recall",
            "precision",
			"memory",
            "runtime",
            "stats:full",
            "heatmap:full"
		]
	}
}


